…
> combined_Set %>% cohens_d(Mean_Dev ~ Algorithm, paired = TRUE)
# A tibble: 1 × 7
  .y.      group1 group2 effsize    n1    n2 magnitude
* <chr>    <chr>  <chr>    <dbl> <int> <int> <ord>    
1 Mean_Dev 0      1        0.233  1900  1900 small    
> 05_95 <- df[combined_Set$Src_SubDiv == '5' & combined_Set$Input_Reduction > 95,]
Error: unexpected input in "05_"
> five_NinetyFive <- df[combined_Set$Src_SubDiv == '5' & combined_Set$Input_Reduction > 95,]
Error in df[combined_Set$Src_SubDiv == "5" & combined_Set$Input_Reduction >  : 
  object of type 'closure' is not subsettable
> df[combined_Set$Src_SubDiv == '5' & combined_Set$Input_Reduction > 95,]
Error in df[combined_Set$Src_SubDiv == "5" & combined_Set$Input_Reduction >  : 
  object of type 'closure' is not subsettable
> combined_Set
# A tibble: 3,800 × 15
       Seed Tile_ID Algorithm Src_SubDiv Input_Reduction Vert_Count Tri_Count Vert_Reduction Tri_Reduction
      <int>   <int> <fct>          <int>           <int>      <int>     <int>          <dbl>         <dbl>
 1  -2.38e8       0 0                  5              95      26880    103680              1             1
 2  -1.98e9       0 0                  5              95      26880    103680              1             1
 3  -7.29e8       0 0                  5              95      26880    103680              1             1
 4   1.88e9       0 0                  5              95      26880    103680              1             1
 5  -7.72e8       0 0                  5              95      26880    103680              1             1
 6  -2.09e9       0 0                  5              95      26880    103680              1             1
 7   1.17e9       0 0                  5              95      26880    103680              1             1
 8   9.62e8       0 0                  5              95      26880    103680              1             1
 9   1.36e9       0 0                  5              95      26880    103680              1             1
10   1.29e9       0 0                  5              95      26880    103680              1             1
# ℹ 3,790 more rows
# ℹ 6 more variables: Min_Elev <dbl>, Max_Elev <dbl>, Mean_Elev <dbl>, Min_Dev <dbl>, Max_Dev <dbl>,
#   Mean_Dev <dbl>
# ℹ Use `print(n = ...)` to see more rows
…
